/'
SPDX-FileCopyrightText: 2022 The Tor Project, Inc.

SPDX-License-Identifier: CC0-1.0
'/
@startuml activity_helper_path

start

:use_as_exit?;
if (NOT relay.is_exit_can_exit_443) then (yes)
  :False;
else (no)
  if (consensus has `cc_alg=2`) then (yes)
    if (consensus has `bwscanner_cc>=1`) then (yes)
      if (relay.has_2_in_flowctrl) then (yes)
        :True;
      else (no)
        :False;
      endif
    ' no `bwscanner_cc>=1`
    else (no)
      if (relay.has_2_in_flowctrl) then (yes)
        :False;
      else (no)
        :True;
      endif
    endif
  else (no)
    :True;
  endif
endif

:helper_candidates?;
if (relay_as_exit) then (yes)
  :non_exits;
else (no)
  if (consensus has `cc_alg=2`) then (yes)
    if (consensus has `bwscanner_cc>=1`) then (yes)
      :exits_with_2_in_flowctrl;
    else (no)
      :exits_witout_2_in_flowctrl;
    endif
  else (no)
    :exits;
  endif
endif

:Randomly select
 a relay from
 previous candidates;
:Build a circuit
whith exit as
second hop;
stop

@enduml
